{
  "project_info": {
    "project_number": "598855277486",
    "firebase_url": "https://medice-ausum.firebaseio.com",
    "project_id": "medice-ausum",
    "storage_bucket": "medice-ausum.appspot.com"
  },
  "client": [
    {
      "client_info": {
        "mobilesdk_app_id": "1:598855277486:android:a65ac970481d12ad7d863f",
        "android_client_info": {
          "package_name": "com.mediceausum.android.user"
        }
      },
      "oauth_client": [
        {
          "client_id": "598855277486-aditipkigjc3ni1t8i1m8n439hshmne0.apps.googleusercontent.com",
          "client_type": 1,
          "android_info": {
            "package_name": "com.mediceausum.android.user",
            "certificate_hash": "01c2b12398a6522a9f1d90392ce0560c7a1b5e03"
          }
        },
        {
          "client_id": "598855277486-mgl81upl86o4ap452dr81g3cqfjotfq4.apps.googleusercontent.com",
          "client_type": 3
        }
      ],
      "api_key": [
        {
          "current_key": "AIzaSyDnW_Hrnl7Z0KrdhBK2RsVDmmwdIvtoV2s"
        }
      ],
      "services": {
        "appinvite_service": {
          "other_platform_oauth_client": [
            {
              "client_id": "598855277486-mgl81upl86o4ap452dr81g3cqfjotfq4.apps.googleusercontent.com",
              "client_type": 3
            }
          ]
        }
      }
    }
  ],
  "configuration_version": "1"
}